{
  "type": "dock",
  "no-collpase": true,
  "row": true,
  "docks": 
  [
    {
      "type": "dock",
      "no-collpase": true,
      "column": true,
      "docks": 
      [
        {
          "active": 0,
          "type": "panel",
          "width": 300,
          "min-width": 240,
          "panels": [
            "clovex-main.project-tree"
          ]
        },
        {
          "active": 0,
          "type": "panel",
          "height": 200,
          "min-height": 200,
          "panels": [
            "clovex-main.entity-tree"
          ]
        }
      ]
    },
    {
      "active": 0,
      "type": "panel",
      "width": 300,
      "min-width": 240,
      "panels": [
        "clovex-main.entity-editor"
      ]
    },
    {
      "active": 0,
      "type": "panel",
      "width": 300,
      "min-width": 240,
      "panels": [
        "clovex-main.properties"
      ]
    }
  ]
}
